<?xml version="1.0" encoding="utf-8"?>
<!-- Generator: Adobe Illustrator 25.2.1, SVG Export Plug-In . SVG Version: 6.00 Build 0)  -->
<svg version="1.1" id="Layer_1" xmlns="http://www.w3.org/2000/svg" xmlns:xlink="http://www.w3.org/1999/xlink" x="0px" y="0px"
	 viewBox="0 0 27.5 27.5" style="enable-background:new 0 0 27.5 27.5;" xml:space="preserve">
<style type="text/css">
	.st0{fill:#0BE9F0;}
</style>
<path class="st0" d="M13.8,0C6.2,0,0,6.2,0,13.8c0,7.6,6.2,13.8,13.8,13.8c7.6,0,13.8-6.2,13.8-13.8v0C27.5,6.2,21.4,0,13.8,0z
	 M13.8,3.4c4.4,0,8.2,2.8,9.7,6.9H4.1C5.5,6.2,9.4,3.5,13.8,3.4z M13.8,15.5c-1,0-1.7-0.8-1.7-1.7c0-1,0.8-1.7,1.7-1.7
	c1,0,1.7,0.8,1.7,1.7S14.7,15.5,13.8,15.5L13.8,15.5z M3.4,13.8c4.7,0,8.5,4.5,8.6,10.2C7.1,23.1,3.5,18.8,3.4,13.8z M15.5,23.9
	c0.1-5.6,3.9-10.2,8.6-10.2C24.1,18.8,20.5,23.1,15.5,23.9z"/>
</svg>
